{
  "project_info": {
    "project_number": "78720852008",
    "firebase_url": "https://sosapp-e5a5c.firebaseio.com",
    "project_id": "sosapp-e5a5c",
    "storage_bucket": "sosapp-e5a5c.appspot.com"
  },
  "client": [
    {
      "client_info": {
        "mobilesdk_app_id": "1:78720852008:android:798e266970c3dc29",
        "android_client_info": {
          "package_name": "com.viking.soscondo"
        }
      },
      "oauth_client": [
        {
          "client_id": "78720852008-4ej40mf9dant93u277ltmiil25mtp63i.apps.googleusercontent.com",
          "client_type": 1,
          "android_info": {
            "package_name": "com.viking.soscondo",
            "certificate_hash": "46a0ebb3b7e59d5943a8481e0053f11705b612e6"
          }
        },
        {
          "client_id": "78720852008-12np2v6ibd5pduslg44b5dqrn1kmbblj.apps.googleusercontent.com",
          "client_type": 3
        }
      ],
      "api_key": [
        {
          "current_key": "AIzaSyAFe5L_qpGWscqIegerOLrwtmPmnvz5VAk"
        }
      ],
      "services": {
        "appinvite_service": {
          "other_platform_oauth_client": [
            {
              "client_id": "78720852008-12np2v6ibd5pduslg44b5dqrn1kmbblj.apps.googleusercontent.com",
              "client_type": 3
            }
          ]
        }
      }
    }
  ],
  "configuration_version": "1"
}